//Alice:{

//WhiteList
./sipp -sn uac -nr -r 1 -rp 1000 -m 1 -d 0 -l 1 -s +375290000001 -p 5065 -trace_msg -i 127.0.0.1 -rsa 127.0.0.1:5060 127.0.0.1:5066

//BlackList
./sipp -sn uac -nr -r 1 -rp 1000 -m 1 -d 0 -l 1 -s +375290000002 -p 5065 -trace_msg -i 127.0.0.1 -rsa 127.0.0.1:5060 127.0.0.1:5066

//CurrentUser
./sipp -sn uac -nr -r 1 -rp 1000 -m 1 -d 0 -l 1 -s +375290000003 -p 5065 -trace_msg -i 127.0.0.1 -rsa 127.0.0.1:5060 127.0.0.1:5066

//RemovedUser
./sipp -sn uac -nr -r 1 -rp 1000 -m 1 -d 0 -l 1 -s +375290000004 -p 5065 -trace_msg -i 127.0.0.1 -rsa 127.0.0.1:5060 127.0.0.1:5066

}

//Bob
./sipp -sn uas -d 0 -m 1 -p 5066 -i 127.0.0.1 -rsa 127.0.0.1:5060 -trace_msg
